\relax 
\citation{durand2014euroserver,dongvenice,dredbox2016katrinis}
\citation{magenheimer2009transcendent}
\@writefile{toc}{\contentsline {section}{\numberline {1}Introduction}{1}}
\citation{barham2003xen}
\citation{kivity2007kvm}
\citation{vmware}
\citation{magenheimer2009transcendent}
\citation{magenheimer2009transcendent}
\@writefile{toc}{\contentsline {section}{\numberline {2}Background}{2}}
\newlabel{sec:background}{{2}{2}}
\@writefile{toc}{\contentsline {subsection}{\numberline {2.1}Virtualization In IaaS Clouds}{2}}
\newlabel{sec:virtualization}{{2.1}{2}}
\@writefile{toc}{\contentsline {subsubsection}{\numberline {2.1.1}Memory Management in the Hypervisor}{2}}
\newlabel{sec:virtsinglenode}{{2.1.1}{2}}
\@writefile{lof}{\contentsline {figure}{\numberline {1}{\ignorespaces Using Xen Transcendent Memory (Tmem)}}{2}}
\newlabel{fig:sec2-tmembaseline}{{1}{2}}
\@writefile{toc}{\contentsline {subsubsection}{\numberline {2.1.2}State-of-the-Art Transcendent Memory}{2}}
\newlabel{sec:tmem}{{2.1.2}{2}}
\citation{magenheimer2009transcendent}
\citation{dongvenice}
\citation{durand2014euroserver}
\citation{howard201048}
\citation{dredbox2016katrinis}
\citation{thacker2010beehive}
\@writefile{lof}{\contentsline {figure}{\numberline {2}{\ignorespaces Coherence islands (with two nodes)}}{3}}
\newlabel{fig:sec2-euroblkdiagram}{{2}{3}}
\@writefile{toc}{\contentsline {subsection}{\numberline {2.2}Hardware Support for Coherence Islands}{3}}
\newlabel{sec:archmodel}{{2.2}{3}}
\@writefile{toc}{\contentsline {section}{\numberline {3}AR-Tmem design}{3}}
\newlabel{sec:sharing}{{3}{3}}
\@writefile{toc}{\contentsline {subsection}{\numberline {3.1}Hypervisor Support}{3}}
\newlabel{sec:sharing:xen}{{3.1}{3}}
\newlabel{sec:allocation}{{3.1}{3}}
\@writefile{lot}{\contentsline {table}{\numberline {1}{\ignorespaces Summary of memory statistics used in the Memory Manager\nobreakspace  {}(MM)}}{4}}
\newlabel{table:statvars}{{1}{4}}
\@writefile{lof}{\contentsline {figure}{\numberline {3}{\ignorespaces Flow of page ownership inside a node}}{4}}
\newlabel{fig:sec3-pagemvmtinlists}{{3}{4}}
\@writefile{toc}{\contentsline {subsection}{\numberline {3.2}Dom0 Tmem Kernel Module (TKM)}{5}}
\newlabel{sec:dom0tkm}{{3.2}{5}}
\@writefile{toc}{\contentsline {subsection}{\numberline {3.3}Dom0 User-space Memory Manager\nobreakspace  {}(MM)}{5}}
\newlabel{sec:sharing:mm}{{3.3}{5}}
\@writefile{toc}{\contentsline {subsubsection}{\numberline {3.3.1}Joining the AR-Tmem system}{5}}
\newlabel{sec:joining}{{3.3.1}{5}}
\@writefile{toc}{\contentsline {subsubsection}{\numberline {3.3.2}Distributing ownership of memory}{5}}
\newlabel{sec:distributing-ownership}{{3.3.2}{5}}
\@writefile{toc}{\contentsline {subsubsection}{\numberline {3.3.3}Leaving the AR-Tmem system}{5}}
\newlabel{sec:shutdown}{{3.3.3}{5}}
\@writefile{toc}{\contentsline {subsubsection}{\numberline {3.3.4}Resilient memory capacity aggregation}{5}}
\newlabel{sec:resiliency}{{3.3.4}{5}}
\newlabel{sec:invalidation}{{3.3.4}{5}}
\@writefile{lot}{\contentsline {table}{\numberline {2}{\ignorespaces Memory Manager message types}}{6}}
\newlabel{table:messages}{{2}{6}}
\@writefile{lof}{\contentsline {figure}{\numberline {4}{\ignorespaces Node state transition diagram (at MM--M)}}{6}}
\newlabel{fig:sec3-states}{{4}{6}}
\citation{cloudsuite}
\citation{spark-training}
\citation{soc-twitter-follows}
\citation{netdatarep}
\citation{netdatarepinter}
\@writefile{toc}{\contentsline {subsection}{\numberline {3.4}Hardware Support for Memory Aggregation}{7}}
\newlabel{sec:sharing:arch}{{3.4}{7}}
\@writefile{toc}{\contentsline {section}{\numberline {4}Experimental Methodology}{7}}
\newlabel{sec:evaluation}{{4}{7}}
\@writefile{lot}{\contentsline {table}{\numberline {3}{\ignorespaces Hardware characteristics}}{7}}
\newlabel{fig:hardware}{{3}{7}}
\@writefile{toc}{\contentsline {section}{\numberline {5}Results}{7}}
\newlabel{sec:results}{{5}{7}}
\@writefile{toc}{\contentsline {subsection}{\numberline {5.1}Results for Scenario\nobreakspace  {}1}{7}}
\@writefile{lot}{\contentsline {table}{\numberline {4}{\ignorespaces List of scenarios used for benchmarking}}{8}}
\newlabel{table:scenarios}{{4}{8}}
\@writefile{lof}{\contentsline {figure}{\numberline {5}{\ignorespaces Running time for Scenario\nobreakspace  {}1 in nodes 1 and 3. Time is shown in seconds (less is better). }}{8}}
\newlabel{fig:sec5-scn5-3-runtime}{{5}{8}}
\@writefile{lof}{\contentsline {figure}{\numberline {6}{\ignorespaces Utilization of the Tmem capacity (nod-tmem) by every VM in node 3 for Scenario 1. The label \emph  {target-VM3} refers to the target allocation of VM3. }}{8}}
\newlabel{fig:sec5-scn5-3-alldoms-nodtmem}{{6}{8}}
\@writefile{lof}{\contentsline {figure}{\numberline {7}{\ignorespaces Aggregated Tmem capacity taken by node 1 (a) and node 3 (b) for the different policies in Scenario 1. }}{9}}
\newlabel{fig:sec5-scn5-3-allnodes-remotetmem}{{7}{9}}
\@writefile{lof}{\contentsline {figure}{\numberline {8}{\ignorespaces Running time for Scenario 2 for nodes 1 and 3. Node 2 has no VMs.}}{9}}
\newlabel{fig:sec5-scn1-2-runtime}{{8}{9}}
\@writefile{toc}{\contentsline {subsection}{\numberline {5.2}Results for Scenario 2: the Usemem Scenario}{9}}
\@writefile{lof}{\contentsline {figure}{\numberline {9}{\ignorespaces Utilization of the tmem capacity (nod-tmem) by every VM in node 3 for Scenario 2. }}{9}}
\newlabel{fig:sec5-scn1-2-alldoms-nodtmem}{{9}{9}}
\citation{ramster}
\citation{ramster}
\citation{ousterhout2010case}
\citation{memcached}
\citation{heca}
\citation{cloudstack}
\citation{openstack}
\bibstyle{ieeetr}
\bibdata{ref.bib}
\bibcite{durand2014euroserver}{{1}{}{{}}{{}}}
\@writefile{lof}{\contentsline {figure}{\numberline {10}{\ignorespaces Aggregated Tmem capacity taken by node 1 (a) and node 3 (b) for the different policies in Scenario 2. }}{10}}
\newlabel{fig:sec5-scn1-2-allnodes-remotetmem}{{10}{10}}
\@writefile{lof}{\contentsline {figure}{\numberline {11}{\ignorespaces Running time for Scenario 3 for nodes 1 and 3. Node 2 has no VMs.}}{10}}
\newlabel{fig:sec5-scn12-2-runtime}{{11}{10}}
\@writefile{toc}{\contentsline {section}{\numberline {6}Related Work}{10}}
\newlabel{sec:relatedwork}{{6}{10}}
\@writefile{toc}{\contentsline {section}{\numberline {7}Conclusions and Future Work}{10}}
\newlabel{sec:conclusions}{{7}{10}}
\bibcite{dongvenice}{{2}{}{{}}{{}}}
\bibcite{dredbox2016katrinis}{{3}{}{{}}{{}}}
\bibcite{magenheimer2009transcendent}{{4}{}{{}}{{}}}
\bibcite{barham2003xen}{{5}{}{{}}{{}}}
\bibcite{kivity2007kvm}{{6}{}{{}}{{}}}
\bibcite{vmware}{{7}{}{{}}{{}}}
\bibcite{howard201048}{{8}{}{{}}{{}}}
\bibcite{thacker2010beehive}{{9}{}{{}}{{}}}
\bibcite{cloudsuite}{{10}{}{{}}{{}}}
\bibcite{spark-training}{{11}{}{{}}{{}}}
\bibcite{soc-twitter-follows}{{12}{}{{}}{{}}}
\bibcite{netdatarep}{{13}{}{{}}{{}}}
\bibcite{netdatarepinter}{{14}{}{{}}{{}}}
\bibcite{ramster}{{15}{}{{}}{{}}}
\bibcite{ousterhout2010case}{{16}{}{{}}{{}}}
\bibcite{memcached}{{17}{}{{}}{{}}}
\bibcite{heca}{{18}{}{{}}{{}}}
\bibcite{cloudstack}{{19}{}{{}}{{}}}
\bibcite{openstack}{{20}{}{{}}{{}}}
\providecommand\NAT@force@numbers{}\NAT@force@numbers
\newlabel{sigplanconf@finalpage}{{7}{11}}
